…
``` r
sceptre_object |> get_cell_covariates() |> count(prep_batch)
```

    ##     prep_batch      n
    ## 1 prep_batch_1 107947
    ## 2 prep_batch_2  99377

Let us take a look at the gRNA-target data frame:

``` r
sceptre_object@grna_target_data_frame
```

    ## # A tibble: 13,077 × 5
    ##    grna_id              grna_target     chr       start       end
    ##    <chr>                <chr>           <chr>     <int>     <int>
    ##  1 AAGCCCGGCCAGCCGACCGG ENSG00000075624 chr7    5570339   5570340
    ##  2 ACGGGCGGCGGATCGGCAAG ENSG00000075624 chr7    5570339   5570340
    ##  3 AGAGTGCGAGAGCTGGCAGG ENSG00000184009 chr17  79479815  79479816
    ##  4 CACCGGCAGAGAAACGCGAG ENSG00000184009 chr17  79479815  79479816
    ##  5 CTGGACCGAGCTGCAGAGTG ENSG00000119640 chr14  75530722  75530723
    ##  6 TCCGGGACCACCACGCCAAG ENSG00000119640 chr14  75530722  75530723
    ##  7 CTACATCCCGCGGCGCTGGG ENSG00000159346 chr1  202927391 202927392
    ##  8 GGGAGGGCGCTGAAGATCGG ENSG00000159346 chr1  202927391 202927392
    ##  9 CCAAGGCGTCCTCAGACCAG ENSG00000128918 chr15  58306298  58306299
    ## 10 GCCGGGTGTCCCTAGCCCGG ENSG00000128918 chr15  58306298  58306299
    ## # ℹ 13,067 more rows

The gRNA id is the gRNA barcode. Different gRNAs have different target
types.

Some target genes:

``` r
sceptre_object@grna_target_data_frame |>
  filter(grepl("ENSG", grna_target))
```

    ## # A tibble: 754 × 5
    ##    grna_id              grna_target     chr       start       end
    ##    <chr>                <chr>           <chr>     <int>     <int>
    ##  1 AAGCCCGGCCAGCCGACCGG ENSG00000075624 chr7    5570339   5570340
    ##  2 ACGGGCGGCGGATCGGCAAG ENSG00000075624 chr7    5570339   5570340
    ##  3 AGAGTGCGAGAGCTGGCAGG ENSG00000184009 chr17  79479815  79479816
    ##  4 CACCGGCAGAGAAACGCGAG ENSG00000184009 chr17  79479815  79479816
    ##  5 CTGGACCGAGCTGCAGAGTG ENSG00000119640 chr14  75530722  75530723
    ##  6 TCCGGGACCACCACGCCAAG ENSG00000119640 chr14  75530722  75530723
    ##  7 CTACATCCCGCGGCGCTGGG ENSG00000159346 chr1  202927391 202927392
    ##  8 GGGAGGGCGCTGAAGATCGG ENSG00000159346 chr1  202927391 202927392
    ##  9 CCAAGGCGTCCTCAGACCAG ENSG00000128918 chr15  58306298  58306299
    ## 10 GCCGGGTGTCCCTAGCCCGG ENSG00000128918 chr15  58306298  58306299
    ## # ℹ 744 more rows

Some target enhancers:

``` r
sceptre_object@grna_target_data_frame |>
  filter(grepl("chr", grna_target))
```

    ## # A tibble: 12,222 × 5
    ##    grna_id              grna_target             chr      start      end
    ##    <chr>                <chr>                   <chr>    <int>    <int>
    ##  1 CGGCCGGGTGAGCTCCTCAG chr16:1470800-1470801   chr16  1470800  1470801
    ##  2 GGCGTCAGTCGAGGAGTCAG chr16:1470800-1470801   chr16  1470800  1470801
    ##  3 CTCGCAGCCGTCATGGCAGG chr1:85725315-85725316  chr1  85725315 85725316
    ##  4 TTGTCGCTCGCAGCCGTCAG chr1:85725315-85725316  chr1  85725315 85725316
    ##  5 GGTGGCCCGGGTCTATAATG chr21:33984895-33984896 chr21 33984895 33984896
    ##  6 TGGGATTCCGGACTGTGAGG chr21:33984895-33984896 chr21 33984895 33984896
    ##  7 GCCCGACTGTTGAGTGAGGG chr6:31802385-31802386  chr6  31802385 31802386
    ##  8 GCGAAGTGGGCTCGTGGGTG chr6:31802385-31802386  chr6  31802385 31802386
    ##  9 TAGAGGGGTGAAACAAAAAG chr10:29023920-29024458 chr10 29023920 29024458
    ## 10 CCATCCAGCAAACTTAGCAG chr10:29023920-29024458 chr10 29023920 29024458
    ## # ℹ 12,212 more rows

Some are non-targeting:

``` r
sceptre_object@grna_target_data_frame |>
  filter(grna_target == "non-targeting")
```

    ## # A tibble: 101 × 5
    ##    grna_id              grna_target   chr   start   end
    ##    <chr>                <chr>         <chr> <int> <int>
    ##  1 CTCACCTGTGGGAGTAACGG non-targeting <NA>     NA    NA
    ##  2 AATCCTCTAATGGACGAAGA non-targeting <NA>     NA    NA
    ##  3 AGATACCTATGGCCATATAG non-targeting <NA>     NA    NA
    ##  4 AGAGGTAACCAAAATAGCAA non-targeting <NA>     NA    NA
    ##  5 ATATGTAACCTCCAGAATGA non-targeting <NA>     NA    NA
    ##  6 TACAACTGCATTACATGCCA non-targeting <NA>     NA    NA
    ##  7 TCCGCAGTCAAAAGACCGAG non-targeting <NA>     NA    NA
    ##  8 AATATTCTCCCTCATTCTGG non-targeting <NA>     NA    NA
    ##  9 TTAAAATTGATTCTGCCACT non-targeting <NA>     NA    NA
    ## 10 ATTGGCAGTCTCTAAGAAGT non-targeting <NA>     NA    NA
    ## # ℹ 91 more rows
